<mxfile host="app.diagrams.net" modified="2020-11-19T14:45:51.707Z" agent="5.0 (X11; Linux x86_64) AppleWebKit/537.36 (KHTML, like Gecko) Chrome/86.0.4240.111 Safari/537.36" etag="InCbo8QMCVfJB-KJKIJb" version="13.10.0" type="gitlab">
  <diagram id="R2lEEEUBdFMjLlhIrx00" name="Page-1">
    <mxGraphModel dx="1372" dy="774" grid="1" gridSize="10" guides="1" tooltips="1" connect="1" arrows="1" fold="1" page="1" pageScale="1" pageWidth="850" pageHeight="1100" math="0" shadow="0" extFonts="Permanent Marker^https://fonts.googleapis.com/css?family=Permanent+Marker">
      <root>
        <mxCell id="0" />
        <mxCell id="1" parent="0" />
        <mxCell id="-PHdiVDoLqg3_ygET4oq-6" value="restaurant&lt;br&gt;quartier&lt;br&gt;adresse restaurant *&lt;br&gt;nom restaurant nom du quartier*&lt;br&gt;téléphone restaurant&lt;br&gt;couleur quartier&lt;br&gt;adresse mail restaurant&lt;br&gt;type de restaurant&lt;br&gt;prhoto restaurant" style="text;html=1;strokeColor=none;fillColor=none;align=center;verticalAlign=middle;whiteSpace=wrap;rounded=0;" parent="1" vertex="1">
          <mxGeometry x="10" y="20" width="180" height="150" as="geometry" />
        </mxCell>
        <mxCell id="-PHdiVDoLqg3_ygET4oq-8" value="Restaurant&lt;br&gt;&lt;br&gt;&lt;u&gt;id*&lt;/u&gt;&lt;br&gt;nom *&lt;br&gt;téléphone&lt;br&gt;adresse *&lt;br&gt;mail&lt;br&gt;photo&lt;br&gt;type" style="whiteSpace=wrap;html=1;aspect=fixed;" parent="1" vertex="1">
          <mxGeometry x="10" y="260" width="150" height="150" as="geometry" />
        </mxCell>
        <mxCell id="-PHdiVDoLqg3_ygET4oq-9" value="Quartier&lt;br&gt;&lt;br&gt;&lt;u&gt;id*&lt;/u&gt;&lt;br&gt;nom *&lt;br&gt;couleur *" style="whiteSpace=wrap;html=1;aspect=fixed;" parent="1" vertex="1">
          <mxGeometry x="710" y="240" width="80" height="80" as="geometry" />
        </mxCell>
        <mxCell id="-PHdiVDoLqg3_ygET4oq-11" value="localisé" style="ellipse;whiteSpace=wrap;html=1;" parent="1" vertex="1">
          <mxGeometry x="340" y="240" width="120" height="80" as="geometry" />
        </mxCell>
        <mxCell id="-PHdiVDoLqg3_ygET4oq-12" value="" style="endArrow=none;html=1;entryX=0;entryY=0.613;entryDx=0;entryDy=0;entryPerimeter=0;" parent="1" source="-PHdiVDoLqg3_ygET4oq-8" target="-PHdiVDoLqg3_ygET4oq-11" edge="1">
          <mxGeometry width="50" height="50" relative="1" as="geometry">
            <mxPoint x="400" y="230" as="sourcePoint" />
            <mxPoint x="450" y="180" as="targetPoint" />
          </mxGeometry>
        </mxCell>
        <mxCell id="-PHdiVDoLqg3_ygET4oq-21" value="" style="endArrow=none;html=1;exitX=1.025;exitY=0.363;exitDx=0;exitDy=0;exitPerimeter=0;" parent="1" source="-PHdiVDoLqg3_ygET4oq-11" edge="1">
          <mxGeometry width="50" height="50" relative="1" as="geometry">
            <mxPoint x="570" y="250" as="sourcePoint" />
            <mxPoint x="705" y="270" as="targetPoint" />
            <Array as="points">
              <mxPoint x="590" y="260" />
            </Array>
          </mxGeometry>
        </mxCell>
        <mxCell id="-PHdiVDoLqg3_ygET4oq-23" value="1.1" style="text;html=1;align=center;verticalAlign=middle;resizable=0;points=[];autosize=1;" parent="1" vertex="1">
          <mxGeometry x="175" y="270" width="30" height="20" as="geometry" />
        </mxCell>
        <mxCell id="-PHdiVDoLqg3_ygET4oq-24" value="0.n" style="text;html=1;align=center;verticalAlign=middle;resizable=0;points=[];autosize=1;" parent="1" vertex="1">
          <mxGeometry x="655" y="230" width="30" height="20" as="geometry" />
        </mxCell>
        <mxCell id="-PHdiVDoLqg3_ygET4oq-25" value="Du coup on ne crée pas d&#39;entité adresse car si on le faisait, on aurait une relation 1.1 entre restaurant et adresse ==&amp;gt; REDONDANCE&lt;br&gt;&lt;br&gt;Pour éviter cela , adresse devient un ATTRIBUT et on l&#39;inclut dans Restaurant" style="text;html=1;strokeColor=none;fillColor=none;align=center;verticalAlign=middle;whiteSpace=wrap;rounded=0;" parent="1" vertex="1">
          <mxGeometry y="680" width="410" height="100" as="geometry" />
        </mxCell>
        <mxCell id="-PHdiVDoLqg3_ygET4oq-26" value="type restaurant&lt;br&gt;&lt;br&gt;&lt;u&gt;id*&lt;/u&gt;&lt;br&gt;nom *" style="whiteSpace=wrap;html=1;aspect=fixed;" parent="1" vertex="1">
          <mxGeometry x="480" y="510" width="100" height="100" as="geometry" />
        </mxCell>
        <mxCell id="-PHdiVDoLqg3_ygET4oq-27" value="caractérise" style="ellipse;whiteSpace=wrap;html=1;" parent="1" vertex="1">
          <mxGeometry x="190" y="480" width="120" height="80" as="geometry" />
        </mxCell>
        <mxCell id="-PHdiVDoLqg3_ygET4oq-28" value="" style="endArrow=none;html=1;exitX=1;exitY=0.5;exitDx=0;exitDy=0;entryX=-0.025;entryY=0.388;entryDx=0;entryDy=0;entryPerimeter=0;" parent="1" source="-PHdiVDoLqg3_ygET4oq-27" target="-PHdiVDoLqg3_ygET4oq-26" edge="1">
          <mxGeometry width="50" height="50" relative="1" as="geometry">
            <mxPoint x="400" y="510" as="sourcePoint" />
            <mxPoint x="470" y="540" as="targetPoint" />
          </mxGeometry>
        </mxCell>
        <mxCell id="-PHdiVDoLqg3_ygET4oq-29" value="0. n&amp;nbsp;&lt;br&gt;" style="text;html=1;strokeColor=none;fillColor=none;align=center;verticalAlign=middle;whiteSpace=wrap;rounded=0;" parent="1" vertex="1">
          <mxGeometry x="430" y="510" width="40" height="20" as="geometry" />
        </mxCell>
        <mxCell id="-PHdiVDoLqg3_ygET4oq-30" value="" style="endArrow=none;html=1;" parent="1" edge="1">
          <mxGeometry width="50" height="50" relative="1" as="geometry">
            <mxPoint x="200" y="490" as="sourcePoint" />
            <mxPoint x="70" y="410" as="targetPoint" />
            <Array as="points">
              <mxPoint x="200" y="490" />
              <mxPoint x="70" y="410" />
            </Array>
          </mxGeometry>
        </mxCell>
        <mxCell id="-PHdiVDoLqg3_ygET4oq-31" value="1.n" style="text;html=1;strokeColor=none;fillColor=none;align=center;verticalAlign=middle;whiteSpace=wrap;rounded=0;" parent="1" vertex="1">
          <mxGeometry x="50" y="430" width="40" height="20" as="geometry" />
        </mxCell>
        <mxCell id="nFbvz_l_tcObUmw9eB6o-1" value="*&amp;nbsp; = obligatoire" style="text;html=1;align=center;verticalAlign=middle;resizable=0;points=[];autosize=1;" vertex="1" parent="1">
          <mxGeometry x="10" y="620" width="90" height="20" as="geometry" />
        </mxCell>
        <mxCell id="nFbvz_l_tcObUmw9eB6o-2" value="&lt;b&gt;&lt;font style=&quot;font-size: 36px&quot;&gt;MCD&lt;/font&gt;&lt;/b&gt;" style="text;html=1;align=center;verticalAlign=middle;resizable=0;points=[];autosize=1;" vertex="1" parent="1">
          <mxGeometry x="400" y="115" width="100" height="30" as="geometry" />
        </mxCell>
        <mxCell id="nFbvz_l_tcObUmw9eB6o-3" value="&lt;b&gt;&lt;font style=&quot;font-size: 36px&quot;&gt;MLD&lt;/font&gt;&lt;/b&gt;" style="text;html=1;align=center;verticalAlign=middle;resizable=0;points=[];autosize=1;" vertex="1" parent="1">
          <mxGeometry x="450" y="810" width="90" height="30" as="geometry" />
        </mxCell>
        <mxCell id="nFbvz_l_tcObUmw9eB6o-4" value="Restaurant&lt;br&gt;&lt;br&gt;&lt;u&gt;id*&lt;/u&gt;&lt;br&gt;nom *&lt;br&gt;téléphone&lt;br&gt;adresse *&lt;br&gt;mail&lt;br&gt;photo&lt;br&gt;type" style="whiteSpace=wrap;html=1;aspect=fixed;" vertex="1" parent="1">
          <mxGeometry x="25" y="850" width="150" height="150" as="geometry" />
        </mxCell>
        <mxCell id="nFbvz_l_tcObUmw9eB6o-5" value="Quartier&lt;br&gt;&lt;br&gt;&lt;u&gt;id*&lt;/u&gt;&lt;br&gt;nom *&lt;br&gt;couleur *" style="whiteSpace=wrap;html=1;aspect=fixed;" vertex="1" parent="1">
          <mxGeometry x="700" y="880" width="80" height="80" as="geometry" />
        </mxCell>
        <mxCell id="nFbvz_l_tcObUmw9eB6o-6" value="type restaurant&lt;br&gt;&lt;br&gt;&lt;u&gt;idRestaurant *&amp;nbsp;&lt;br&gt;idType *&lt;/u&gt;" style="whiteSpace=wrap;html=1;aspect=fixed;" vertex="1" parent="1">
          <mxGeometry x="360" y="1080" width="110" height="110" as="geometry" />
        </mxCell>
        <mxCell id="nFbvz_l_tcObUmw9eB6o-7" value="" style="endArrow=classic;html=1;entryX=0;entryY=0.5;entryDx=0;entryDy=0;" edge="1" parent="1" target="nFbvz_l_tcObUmw9eB6o-5">
          <mxGeometry width="50" height="50" relative="1" as="geometry">
            <mxPoint x="180" y="920" as="sourcePoint" />
            <mxPoint x="340" y="920" as="targetPoint" />
          </mxGeometry>
        </mxCell>
        <mxCell id="nFbvz_l_tcObUmw9eB6o-8" value="type&lt;br&gt;&lt;br&gt;&lt;u&gt;id*&lt;br&gt;nom *&amp;nbsp;&lt;/u&gt;" style="whiteSpace=wrap;html=1;aspect=fixed;" vertex="1" parent="1">
          <mxGeometry x="620" y="1070" width="80" height="80" as="geometry" />
        </mxCell>
        <mxCell id="nFbvz_l_tcObUmw9eB6o-9" value="" style="endArrow=classic;html=1;exitX=1;exitY=0.5;exitDx=0;exitDy=0;entryX=0;entryY=0.5;entryDx=0;entryDy=0;" edge="1" parent="1" source="nFbvz_l_tcObUmw9eB6o-6" target="nFbvz_l_tcObUmw9eB6o-8">
          <mxGeometry width="50" height="50" relative="1" as="geometry">
            <mxPoint x="520" y="1150" as="sourcePoint" />
            <mxPoint x="570" y="1100" as="targetPoint" />
          </mxGeometry>
        </mxCell>
        <mxCell id="nFbvz_l_tcObUmw9eB6o-10" value="" style="endArrow=classic;html=1;entryX=0.56;entryY=1.02;entryDx=0;entryDy=0;entryPerimeter=0;" edge="1" parent="1" target="nFbvz_l_tcObUmw9eB6o-4">
          <mxGeometry width="50" height="50" relative="1" as="geometry">
            <mxPoint x="360" y="1140" as="sourcePoint" />
            <mxPoint x="340" y="890" as="targetPoint" />
            <Array as="points">
              <mxPoint x="360" y="1140" />
            </Array>
          </mxGeometry>
        </mxCell>
      </root>
    </mxGraphModel>
  </diagram>
</mxfile>
